<svg width="67" height="68" viewBox="0 0 67 68" fill="none" xmlns="http://www.w3.org/2000/svg">
<path fill-rule="evenodd" clip-rule="evenodd" d="M54.9513 16.9H52.3999V35.1683C52.3999 44.7313 43.7348 53.4 34.1682 53.4H15.8999V55.9514C15.8999 62.6053 21.2946 68 27.9486 68H54.9513C61.6052 68 66.9999 62.6053 66.9999 55.9514V28.9487C66.9999 22.2947 61.6052 16.9 54.9513 16.9ZM39.0513 51.1H12.0486C5.3947 51.1 0 45.7053 0 39.0513V12.0486C0 5.3947 5.3947 0 12.0486 0H39.0513C45.7053 0 51.1 5.3947 51.1 12.0486V39.0513C51.1 45.7053 45.7053 51.1 39.0513 51.1Z" fill="#FFCD4D"/>
</svg>
